[
{
    "model": "auth.group",
    "pk": 1,
    "fields": {
        "name": "Moderators",
        "permissions": [
            37,
            38,
            39,
            40,
            33,
            53,
            34,
            35,
            36,
            49,
            50,
            51,
            52,
            41,
            42,
            43,
            44,
            45,
            46,
            47,
            48
        ]
    }
}
]
